Marking nodes as core or periphery — mark_core • netrics
…
    Examples

node_is_core(ison_adolescents)
#>   Betty Sue   Alice Jane  Dale  Pam   Carol Tina 
#> 1 FALSE TRUE  TRUE  FALSE TRUE  FALSE FALSE FALSE
ison_adolescents %>% 
   mutate(corep = node_is_core())
#> 
#> ── # The Adolescent Society ────────────────────────────────────────────────────
#> # A labelled, undirected network of 8 adolescents and 10 friendships ties
#> 
#> ── Nodes 
#> # A tibble: 8 × 2
#>   name  corep     
#>   <chr> <node_mrk>
#> 1 Betty FALSE     
#> 2 Sue   TRUE      
#> 3 Alice TRUE      
#> 4 Jane  FALSE     
#> 5 Dale  TRUE      
#> 6 Pam   FALSE     
#> # ℹ 2 more rows
#> 
#> ── Ties 
#> # A tibble: 10 × 2
#>    from    to
#>   <int> <int>
#> 1     1     2
#> 2     2     3
#> 3     3     4
#> 4     2     5
#> 5     3     5
#> 6     4     5
#> # ℹ 4 more rows
…
