Motifs of nodes cohesion — motif_node • netrics
…
    Examples

node_x_dyad(ison_networkers)
#> # A tibble: 32 × 4
#>   names              Mutual Asymmetric  Null
#>   <chr>               <dbl>      <dbl> <dbl>
#> 1 Lin Freeman            29          2     1
#> 2 Doug White             21         10     1
#> 3 Ev Rogers               3          8    21
#> 4 Richard Alba           17          2    13
#> 5 Phipps Arabie           8         20     4
#> 6 Carol Barner-Barry     12          4    16
#> # ℹ 26 more rows
task_eg <- to_named(to_uniplex(ison_algebra, "tasks"))
(triad_cen <- node_x_triad(task_eg))
#> # A tibble: 16 × 17
#>   names   X003  X012  X102 X021D X021U X021C X111D X111U X030T X030C  X201 X120D
#>   <chr>  <dbl> <dbl> <dbl> <dbl> <dbl> <dbl> <dbl> <dbl> <dbl> <dbl> <dbl> <dbl>
#> 1 Angel     23    11    39     0     0     0     2     2     0     0    17     0
#> 2 Bryan     21     6    47     0     0     0     5     6     0     0    10     0
#> 3 Chris…    34     3    46     0     0     0     2     1     0     0    13     0
#> 4 Drew      52     6    28     0     0     0     0     0     0     0    18     0
#> 5 Edmund    17    11    37     1     0     1     6     7     0     0    15     1
#> 6 Faye      23     8    40     1     0     0     3     3     0     0    18     1
#> # ℹ 10 more rows
#> # ℹ 4 more variables: X120U <dbl>, X120C <dbl>, X210 <dbl>, X300 <dbl>
node_x_tetrad(ison_southern_women)
#> # A tibble: 18 × 12
#>   names        E4    I4    H4    L4    D4    U4    Y4    P4    C4    Z4    X4
#>   <chr>     <dbl> <dbl> <dbl> <dbl> <dbl> <dbl> <dbl> <dbl> <dbl> <dbl> <dbl>
#> 1 Evelyn     1241  1347   176  1138   272     0   246     0    75     0     0
#> 2 Laura      1365  1389   180  1077   213     0   203     0    68     0     0
#> 3 Theresa    1333  1244   123  1137   286     0   281     0    91     0     0
#> 4 Brenda     1384  1356   176  1093   210     0   205     0    71     0     0
#> 5 Charlotte  1728  1562   157   836   117     0    74     0    21     0     0
#> 6 Frances    1840  1433   114   810   134     0   134     0    30     0     0
#> # ℹ 12 more rows
#> # A tibble: 14 × 12
#>   names    E4    I4    H4    L4    D4    U4    Y4    P4    C4    Z4    X4
#>   <chr> <dbl> <dbl> <dbl> <dbl> <dbl> <dbl> <dbl> <dbl> <dbl> <dbl> <dbl>
#> 1 E1     1877  1632    96   710   113     0    52     0    15     0     0
#> 2 E2     1886  1631    84   698   122     0    58     0    16     0     0
#> 3 E3     1368  1611   190  1006   168     0    98     0    54     0     0
#> 4 E4     1681  1673   131   784   138     0    64     0    24     0     0
#> 5 E5     1061  1557   232  1208   216     0   140     0    81     0     0
#> 6 E6     1085  1576   178  1142   287     0   156     0    71     0     0
#> # ℹ 8 more rows
…
